Mão na massa: Aplicando Data Visualization com ggplot2
…
dados_completos <- dados_completos %>% 
  mutate(mes = format(data, "%m"))

Criando tabela com os dados resumidos

vendas_por_mes_regiao <- dados_completos %>% 
  group_by(mes, regiao) %>% 
  summarise(vendas_por_mes_regiao = sum(total))

`summarise()` has grouped output by 'mes'. You can override using the `.groups`
argument.

vendas_por_mes_regiao

# A tibble: 60 × 3
# Groups:   mes [12]
   mes   regiao       vendas_por_mes_regiao
   <chr> <fct>                        <dbl>
 1 01    Centro-Oeste                21823.
 2 01    Nordeste                    82497.
 3 01    Norte                       10959.
 4 01    Sudeste                    144785.
 5 01    Sul                         43617.
 6 02    Centro-Oeste                24654.
 7 02    Nordeste                    44027.
 8 02    Norte                        6676.
 9 02    Sudeste                    101624.
10 02    Sul                         54243.
# ℹ 50 more rows
…
