R: Aplicando Data Visualization com ggplot2
…
Dos clientes que participam do nosso programa de cashback, qual a proporção por região do país? Quais são as 3 principais regiões? Precisamos reforçar a campanha de adesão em quais delas?

Agora que possuímos a base de dados e as perguntas que precisamos responder, vamos explorar um pouco cada uma das bases para verificar se está tudo certo para começarmos a análise dos dados?

Tratando os dados

Agora, vamos fazer uma breve exploração dos dados para compreender um pouco sobre eles. Lembrando que os dados das bases de vendas e clientes já estão limpos (sem dados faltantes ou nulos), restando apenas verificar se os tipos estão corretos ou se podemos adicionar mais informações.

Tabela das vendas

Começando pela base de vendas, vamos entender os dados que possuímos:

vendas

# A tibble: 6,169 × 8
   ID_compra data       horario categoria       preco_unitario quantidade  frete
       <dbl> <date>     <time>  <chr>                    <dbl>      <dbl>  <dbl>
 1         6 2023-01-03 20:40   Tecnologia               899.           4 7.13e2
 2         5 2023-01-03 21:48   Casa/Móveis              116.           1 0     
 3         9 2023-01-03 17:08   Beleza/Saúde              68.9          2 1.38e1
 4         4 2023-01-03 14:29   Casa/Móveis               80.9          5 4.05e1
 5         8 2023-01-03 18:02   Beleza/Saúde             165            4 0     
 6         2 2023-01-03 18:42   Tecnologia              2028.           5 1.72e3
 7         3 2023-01-03 23:47   Supermercado              84.9          5 0     
 8         1 2023-01-03 00:13   Eletrodoméstic…         2170.           1 1.39e2
 9         7 2023-01-03 17:40   Livros                    75.9          5 1.90e1
10        11 2023-01-04 21:50   Casa/Móveis               13.9          5 3.48e0
# ℹ 6,159 more rows
# ℹ 1 more variable: metodo_pagamento <chr>

Como podemos observar, o tibble gerado foi bem assertivo, acertando os dados numéricos, categóricos e de data. Temos mais de 6000 registros de venda e as características das vendas como hora e dia da compra, categoria do produto, preço, método de pagamento entre outros

Porém, como vamos utilizar esses dados para a construção de visuais, uma boa prática é transformar dados categóricos que se repetem (categoria e método de pagamento) em factor. Faremos essa alteração da seguinte forma:

vendas <- vendas %>% 
  mutate_if(is.character, as.factor)
vendas

# A tibble: 6,169 × 8
   ID_compra data       horario categoria       preco_unitario quantidade  frete
       <dbl> <date>     <time>  <fct>                    <dbl>      <dbl>  <dbl>
 1         6 2023-01-03 20:40   Tecnologia               899.           4 7.13e2
 2         5 2023-01-03 21:48   Casa/Móveis              116.           1 0     
 3         9 2023-01-03 17:08   Beleza/Saúde              68.9          2 1.38e1
 4         4 2023-01-03 14:29   Casa/Móveis               80.9          5 4.05e1
 5         8 2023-01-03 18:02   Beleza/Saúde             165            4 0     
 6         2 2023-01-03 18:42   Tecnologia              2028.           5 1.72e3
 7         3 2023-01-03 23:47   Supermercado              84.9          5 0     
 8         1 2023-01-03 00:13   Eletrodoméstic…         2170.           1 1.39e2
 9         7 2023-01-03 17:40   Livros                    75.9          5 1.90e1
10        11 2023-01-04 21:50   Casa/Móveis               13.9          5 3.48e0
# ℹ 6,159 more rows
# ℹ 1 more variable: metodo_pagamento <fct>

Legal! Já ajustamos nosso dados categóricos. Agora, que tal criarmos uma variável que já traga o valor total da compra?

vendas <- vendas %>% 
  mutate(total = preco_unitario * quantidade + frete)

Tabela dos clientes

Vamos agora para a base de clientes observar também os dados que possuímos:

clientes

# A tibble: 6,169 × 9
   ID_compra ID_cliente cidade      uf      regiao idade sexo_biologico cashback
       <dbl>      <dbl> <chr>       <chr>   <chr>  <dbl> <chr>          <chr>   
 1       904       8972 Natal       Rio Gr… Norde…    49 Masculino      Não     
 2      4613       5120 São Paulo   São Pa… Sudes…    49 Feminino       Não     
 3      5579       1847 São Paulo   São Pa… Sudes…    24 Feminino       Não     
 4      2405       2846 São Paulo   São Pa… Sudes…    38 Feminino       Sim     
 5      2485       2715 Salvador    Bahia   Norde…    30 Feminino       Não     
 6       756       9555 João Pessoa Paraíba Norde…    46 Feminino       Não     
 7      3020       3793 Brasília    Distri… Centr…    32 Masculino      Sim     
 8      2390       4903 São Paulo   São Pa… Sudes…    26 Masculino      Não     
 9      3957       3413 Salvador    Bahia   Norde…    30 Feminino       Não     
10      5142       3556 Salvador    Bahia   Norde…    28 Feminino       Não     
# ℹ 6,159 more rows
# ℹ 1 more variable: avaliacao_compra <dbl>
…
ggplot(data = dados, aes(x = Var_1, y = Var_2)) + geom_tipo_grafico( )

Agora que aprendemos a construir o nosso primeiro visual, que tal começarmos a análise dos dados dos clientes e vendas para respondermos aos questionamentos que recebemos? Vamos aprender a construir muitos mais visuais e com diferentes funcionalidades e aparências.

Explorando dados dos clientes

Vamos começar analisando os dados dos clientes. Aqui, vamos optar por uma análise exploratória, sem muitas estilizações e ajustes nos gráficos que nos ajudaram a analisar e levantar hipóteses sobre o perfil dos clientes. O foco será trazer em texto os insights que teremos com os visuais.

Distribuindo dados de uma única variável

A nossa base de dados de clientes é definida pelo ID da compra. Ou seja, 1 ou mais clientes podem realizar mais de uma compra. Então, para verificar isso, vamos contar a quantidade clientes únicos que possuímos.

clientes %>% count(ID_cliente, sort = T)

# A tibble: 4,453 × 2
   ID_cliente     n
        <dbl> <int>
 1       5267     7
 2       4421     6
 3       5145     6
 4       9864     6
 5       1442     5
 6       6698     5
 7       9363     5
 8       1025     4
 9       1172     4
10       1530     4
# ℹ 4,443 more rows

Foi possível notar que na verdade temos 4453 clientes únicos em nossa base. Portanto, vamos criar uma nova tabela que salva os dados de cada um deles unicamente, para que possamos utilizar em nossos visuais.

clientes_unicos <- clientes %>% distinct(ID_cliente, .keep_all = T)
clientes_unicos

# A tibble: 4,453 × 9
   ID_compra ID_cliente cidade      uf      regiao idade sexo_biologico cashback
       <dbl>      <dbl> <fct>       <fct>   <fct>  <dbl> <fct>          <fct>   
 1       904       8972 Natal       Rio Gr… Norde…    49 Masculino      Não     
 2      4613       5120 São Paulo   São Pa… Sudes…    49 Feminino       Não     
 3      5579       1847 São Paulo   São Pa… Sudes…    24 Feminino       Não     
 4      2405       2846 São Paulo   São Pa… Sudes…    38 Feminino       Sim     
 5      2485       2715 Salvador    Bahia   Norde…    30 Feminino       Não     
 6       756       9555 João Pessoa Paraíba Norde…    46 Feminino       Não     
 7      3020       3793 Brasília    Distri… Centr…    32 Masculino      Sim     
 8      2390       4903 São Paulo   São Pa… Sudes…    26 Masculino      Não     
 9      3957       3413 Salvador    Bahia   Norde…    30 Feminino       Não     
10      5142       3556 Salvador    Bahia   Norde…    28 Feminino       Não     
# ℹ 4,443 more rows
# ℹ 1 more variable: avaliacao_compra <dbl>
…
